{
  "items": [
    {
      "id": "1",
      "name": "Containers",
      "isItem": "false",
      "parentId": "-1"
    },
    {
      "id": "2",
      "name": "Art on canvas",
      "isItem": "false",
      "parentId": "-1"
    },
    {
      "id": "3",
      "name": "Silk flowers",
      "isItem": "false",
      "parentId": "-1"
    },

    {
      "id": "6",
      "name": "Interior Plants",
      "isItem": "false",
      "parentId": "-1"
    },
    {
      "id": "7",
      "name": "Interior containers",
      "isItem": "false",
      "parentId": "1"
    },
    {
      "id": "10",
      "name": "Extended Vase",
      "isItem": "true",
      "parentId": "7",
      "drawable_name": "extended_vase",
      "colorId": "1"
    },
    {
          "id": "212",
          "name": "Upper Part Of Extended Vase",
          "isItem": "true",
          "parentId": "7",
          "drawable_name": "upper_extended_vase",
          "colorId": "-1"
        },

    /*The below items are under Interior Containers (id:7), and was formerly under ESP Range(id:8).
    Therefore the Id of the below items have been changed from 8 to 7.*/
    {
      "id": "214",
      "name": "Vase",
      "isItem": "true",
      "parentId": "7",
      "drawable_name": "Vasenolip",
      "colorId": "1"
    },
    {
      "id": "215",
      "name": "Cubis",
      "isItem": "true",
      "parentId": "7",
      "drawable_name": "cube_outdoor_l",
      "colorId": "1"
    },
    {
      "id": "216",
      "name": "Metal Cubis",
      "isItem": "true",
      "parentId": "7",
      "drawable_name": "cube_outdoor_l", //requires metallic finish
      "colorId": "1"
    },

    {
      "id": "12",
      "name": "Gemini",
      "isItem": "true",
      "parentId": "7",
      "drawable_name": "gemini",
      "colorId": "1"
    },
    {
      "id": "13",
      "name": "Gemini bubble",
      "isItem": "true",
      "parentId": "7",
      "drawable_name": "gemini_bubble",
      "colorId": "1"
    },
    {
      "id": "14",
      "name": "La Lunar",
      "isItem": "true",
      "parentId": "7",
      "drawable_name": "la_lunar",
      "colorId": "1"
    },

    {
      "id": "16",
      "name": "Metal Vase",
      "isItem": "true",
      "parentId": "7",
      "drawable_name": "metal_vase",
      "colorId": "-1"
    },

    {
      "id": "18",
      "name": "Otis plain",
      "isItem": "true",
      "parentId": "7",
      "drawable_name": "otis_plain",
      "colorId": "-1"
    },
    {
      "id": "19",
      "name": "Otis aged",
      "isItem": "true",
      "parentId": "7",
      "drawable_name": "otis_aged",
      "colorId": "1"
    },
    {
      "id": "20",
      "name": "Otis aged stone & band",
      "isItem": "true",
      "parentId": "7",
      "drawable_name": "otis_aged_stone_band",
      "colorId": "-1"
    },
    {
      "id": "21",
      "name": "Otis iced waves",
      "isItem": "true",
      "parentId": "7",
      "drawable_name": "otis_iced_waves",
      "colorId": "-1"
    },
    {
      "id": "21",
      "name": "Otis half ribbed",
      "isItem": "true",
      "parentId": "7",
      "drawable_name": "otis_half_ribbed",
      "colorId": "1"
    },
    {
      "id": "22",
      "name": "Ozone",
      "isItem": "true",
      "parentId": "7",
      "drawable_name": "ozone",
      "colorId": "1"
    },
    {
      "id": "23",
      "name": "Ozone fat",
      "isItem": "true",
      "parentId": "7",
      "drawable_name": "ozone_fat",
      "colorId": "1"
    },

 // END

    {
      "id": "26",
      "name": "Exterior containers",
      "isItem": "false",
      "parentId": "1"
    },
    {
      "id": "27",
      "name": "Troughs",
      "isItem": "false",
      "parentId": "1"
    },
    {
      "id": "28",
      "name": "Desk bowls",
      "isItem": "false",
      "parentId": "1"
    },

    /*The below items are under Interior Containers (id:7), and was formerly under ESP Range(id:8).
    Therefore the Id of the below items have been changed from 8 to 7.*/
    {
      "id": "33",
      "name": "Cubico 40",
      "isItem": "true",
      "parentId": "7",
      "drawable_name": "cubico_40",
      "colorId": "1"
    },
    //
    {
      "id": "37",
      "name": "Cube outdoor L",
      "isItem": "true",
      "parentId": "26",
      "drawable_name": "cube_outdoor_l",
      "colorId": "1"
    },
    {
      "id": "38",
      "name": "Cube outdoor M",
      "isItem": "true",
      "parentId": "26",
      "drawable_name": "cube_outdoor_m",
      "colorId": "1"
    },
    {
      "id": "39",
      "name": "Cube outdoor S",
      "isItem": "true",
      "parentId": "26",
      "drawable_name": "cube_outdoor_s",
      "colorId": "1"
    },
    {
      "id": "40",
      "name": "Classic trough outdoor 400",
      "isItem": "true",
      "parentId": "26",
      "drawable_name": "classic_trough_outdoor_400",
      "colorId": "1"
    },
    {
      "id": "41",
      "name": "Classic trough outdoor 750",
      "isItem": "true",
      "parentId": "26",
      "drawable_name": "classic_trough_outdoor_750",
      "colorId": "1"
    },
    {
      "id": "42",
      "name": "Selene concrete",
      "isItem": "true",
      "parentId": "26",
      "drawable_name": "selene_concrete",
      "colorId": "1"
    },
    {
      "id": "43",
      "name": "Slimline outdoor",
      "isItem": "true",
      "parentId": "26",
      "drawable_name": "slimline_outdoor",
      "colorId": "1"
    },
    {
      "id": "44",
      "name": "Toggle pot",
      "isItem": "true",
      "parentId": "26",
      "drawable_name": "toggle_pot",
      "colorId": "1"
    },
    {
      "id": "45",
      "name": "U Planter",
      "isItem": "true",
      "parentId": "26",
      "drawable_name": "u_planter",
      "colorId": "-1"
    },
    {
      "id": "46",
      "name": "Classic trough 400",
      "isItem": "true",
      "parentId": "27",
      "drawable_name": "classic_trough_400",
      "colorId": "1"
    },
    {
      "id": "47",
      "name": "Classic trough 750",
      "isItem": "true",
      "parentId": "27",
      "drawable_name": "classic_trough_750",
      "colorId": "1"
    },
    {
      "id": "48",
      "name": "Cupboard trough",
      "isItem": "true",
      "parentId": "27",
      "drawable_name": "cupboard_trough",
      "colorId": "1"
    },
    {
      "id": "49",
      "name": "K trough 2 div",
      "isItem": "true",
      "parentId": "27",
      "drawable_name": "k_trough_2_div",
      "colorId": "1"
    },
    {
      "id": "50",
      "name": "K trough 3 div",
      "isItem": "true",
      "parentId": "27",
      "drawable_name": "k_trough_3_div",
      "colorId": "1"
    },
    {
      "id": "52",
      "name": "Cube bowl",
      "isItem": "true",
      "parentId": "28",
      "drawable_name": "cube_bowl",
      "colorId": "1"
    },
    {
      "id": "217",
      "name": "Mini Cubis",
      "isItem": "true",
      "parentId": "28",
      "drawable_name": "cube_outdoor_s",
      "colorId": "1"
    },
    {
      "id": "218",
      "name": "Mini Metal Cubis",
      "isItem": "true",
      "parentId": "28",
      "drawable_name": "cube_outdoor_s",
      "colorId": "1"
    },
    {
      "id": "54",
      "name": "Gemini bowl",
      "isItem": "true",
      "parentId": "28",
      "drawable_name": "gemini_bowl",
      "colorId": "1"
    },
    {
      "id": "55",
      "name": "Moon bowl",
      "isItem": "true",
      "parentId": "28",
      "drawable_name": "moon_bowl",
      "colorId": "1"
    },
    {
      "id": "56",
      "name": "Ripple bowl",
      "isItem": "true",
      "parentId": "28",
      "drawable_name": "ripple_bowl",
      "colorId": "1"
    },
    {
      "id": "58",
      "name": "Vibrantly African",
      "isItem": "false",
      "parentId": "2"
    },
    {
      "id": "59",
      "name": "Naturally Serene",
      "isItem": "false",
      "parentId": "2"
    },
    {
      "id": "61",
      "name": "Sea and sand",
      "isItem": "false",
      "parentId": "2"
    },
    {
      "id": "63",
      "name": "Soul Journeys",
      "isItem": "false",
      "parentId": "2"
    },
    {
      "id": "64",
      "name": "Abstract Colour",
      "isItem": "false",
      "parentId": "2"
    },
    {
      "id": "65",
      "name": "Gauteng Vibes",
      "isItem": "false",
      "parentId": "2"
    },
    {
      "id": "66",
      "name": "Western Cape Vibes",
      "isItem": "false",
      "parentId": "2"
    },
    {
      "id": "67",
      "name": "KZN Vibes",
      "isItem": "false",
      "parentId": "2"
    },
    {
      "id": "68",
      "name": "Indigenous",
      "isItem": "false",
      "parentId": "3"
    },
    {
      "id": "69",
      "name": "Country",
      "isItem": "false",
      "parentId": "3"
    },
    {
      "id": "70",
      "name": "Contemporary",
      "isItem": "false",
      "parentId": "3"
    },
    {
      "id": "71",
      "name": "Classic",
      "isItem": "false",
      "parentId": "3"
    },
    {
      "id": "72",
      "name": "African & Indigenous plants",
      "isItem": "false",
      "parentId": "6"
    },
    {
      "id": "73",
      "name": "Exotic plants",
      "isItem": "false",
      "parentId": "6"
    },
    {
      "id": "74",
      "name": "Desk bowl plants",
      "isItem": "false",
      "parentId": "6"
    },
    {
      "id": "75",
      "name": "African & Indigenous plants Low Light",
      "isItem": "false",
      "parentId": "72"
    },
    {
      "id": "76",
      "name": "D. compacta",
      "isItem": "true",
      "parentId": "75",
      "drawable_name": "d_compacta_aip",
      "colorId": "-1"
    },
    {
      "id": "78",
      "name": "Sansevieria spp",
      "isItem": "true",
      "parentId": "75",
      "drawable_name": "sansevieria_spp_aip",
      "colorId": "-1"
    },
    {
      "id": "79",
      "name": "Trichilia spp",
      "isItem": "true",
      "parentId": "75",
      "drawable_name": "trichilia_spp_aip",
      "colorId": "-1"
    },
    {
      "id": "80",
      "name": "Z. zamifolia",
      "isItem": "true",
      "parentId": "75",
      "drawable_name": "z_zamifolia_aip",
      "colorId": "-1"
    },
    {
      "id": "81",
      "name": "African & Indigenous plants Med Light",
      "isItem": "false",
      "parentId": "72"
    },
    {
      "id": "82",
      "name": "D. ‘Angazi’",
      "isItem": "true",
      "parentId": "81",
      "drawable_name": "d_angazi_aip",
      "colorId": "-1"
    },
    {
      "id": "83",
      "name": "D. ‘Rikki’",
      "isItem": "true",
      "parentId": "81",
      "drawable_name": "d_rikki_aip",
      "colorId": "-1"
    },
    {
      "id": "84",
      "name": "D. ‘Massangeana’",
      "isItem": "true",
      "parentId": "81",
      "drawable_name": "d_massangeana_aip",
      "colorId": "-1"
    },
    {
      "id": "85",
      "name": "F. lyrata",
      "isItem": "true",
      "parentId": "81",
      "drawable_name": "f_lyrata_aip",
      "colorId": "-1"
    },
    {
      "id": "86",
      "name": "African & Indigenous plants High Light",
      "isItem": "false",
      "parentId": "72"
    },
    {
      "id": "87",
      "name": "Aloe spp",
      "isItem": "true",
      "parentId": "86",
      "drawable_name": "aloe_spp_aip",
      "colorId": "-1"
    },
    {
      "id": "88",
      "name": "A. lutescens",
      "isItem": "true",
      "parentId": "86",
      "drawable_name": "a_lutescens_aip",
      "colorId": "-1"
    },
    {
      "id": "89",
      "name": "D. ‘Lemon & Lime’",
      "isItem": "true",
      "parentId": "86",
      "drawable_name": "d_lemon_lime_aip",
      "colorId": "-1"
    },
    {
      "id": "90",
      "name": "D. marginata",
      "isItem": "true",
      "parentId": "86",
      "drawable_name": "d_marginata_aip",
      "colorId": "-1"
    },
    {
      "id": "91",
      "name": "D. ‘Tricolor’",
      "isItem": "true",
      "parentId": "86",
      "drawable_name": "d_tricolor_aip",
      "colorId": "-1"
    },
    {
      "id": "92",
      "name": "D. ‘Warneckeii’",
      "isItem": "true",
      "parentId": "86",
      "drawable_name": "d_warneckeii_aip",
      "colorId": "-1"
    },
    {
      "id": "93",
      "name": "Podocarpus spp",
      "isItem": "true",
      "parentId": "86",
      "drawable_name": "podocarpus_spp_aip",
      "colorId": "-1"
    },
    {
      "id": "94",
      "name": "Exotic plants Low Light",
      "isItem": "false",
      "parentId": "73"
    },
    {
      "id": "95",
      "name": "Exotic plants Med Light",
      "isItem": "false",
      "parentId": "73"
    },
    {
      "id": "96",
      "name": "Exotic plants High Light",
      "isItem": "false",
      "parentId": "73"
    },
    {
      "id": "97",
      "name": "A. ‘Silver Queen’",
      "isItem": "true",
      "parentId": "94",
      "drawable_name": "a_silver_queen_ep",
      "colorId": "-1"
    },
    {
      "id": "98",
      "name": "Aspidistra spp",
      "isItem": "true",
      "parentId": "94",
      "drawable_name": "aspidistra_spp_ep",
      "colorId": "-1"
    },
    {
      "id": "99",
      "name": "Ch. seifrizii",
      "isItem": "true",
      "parentId": "94",
      "drawable_name": "ch_seifrizii_ep",
      "colorId": "-1"
    },
    {
      "id": "100",
      "name": "Kentia spp",
      "isItem": "true",
      "parentId": "94",
      "drawable_name": "kentia_spp_ep",
      "colorId": "-1"
    },
    {
      "id": "101",
      "name": "Ph. Scandens MP",
      "isItem": "true",
      "parentId": "94",
      "drawable_name": "ph_scandens_mp_ep",
      "colorId": "-1"
    },
    {
      "id": "102",
      "name": "Rhapis spp",
      "isItem": "true",
      "parentId": "94",
      "drawable_name": "rhapis_spp_ep",
      "colorId": "-1"
    },
    {
      "id": "103",
      "name": "Scindapsus spp MP",
      "isItem": "true",
      "parentId": "94",
      "drawable_name": "scindapsus_spp_mp_ep",
      "colorId": "-1"
    },
    {
      "id": "104",
      "name": "D. reflexa",
      "isItem": "true",
      "parentId": "95",
      "drawable_name": "d_reflexa_ep",
      "colorId": "-1"
    },
    {
      "id": "105",
      "name": "F. elastica",
      "isItem": "true",
      "parentId": "95",
      "drawable_name": "f_elastica_ep",
      "colorId": "-1"
    },
    {
      "id": "106",
      "name": "Schefflera spp bush",
      "isItem": "true",
      "parentId": "95",
      "drawable_name": "schefflera_spp_bush_ep",
      "colorId": "-1"
    },
    {
      "id": "107",
      "name": "Schefflera spp moss pole",
      "isItem": "true",
      "parentId": "95",
      "drawable_name": "schefflera_spp_mp_ep",
      "colorId": "-1"
    },
    {
      "id": "108",
      "name": "Beaucarnea spp",
      "isItem": "true",
      "parentId": "96",
      "drawable_name": "beaucarnea_spp_ep",
      "colorId": "-1"
    },
    {
      "id": "109",
      "name": "F. ‘Exotica’ bush",
      "isItem": "true",
      "parentId": "96",
      "drawable_name": "f_exotica_bush_ep",
      "colorId": "-1"
    },
    {
      "id": "110",
      "name": "F. ‘Exotica’ standard",
      "isItem": "true",
      "parentId": "96",
      "drawable_name": "f_exotica_standard_ep",
      "colorId": "-1"
    },
    {
      "id": "111",
      "name": "F. binnendijkii bush",
      "isItem": "true",
      "parentId": "96",
      "drawable_name": "f_binnendijkii_bush_ep",
      "colorId": "-1"
    },
    {
      "id": "112",
      "name": "F. binnendijkii standard",
      "isItem": "true",
      "parentId": "96",
      "drawable_name": "f_binnendijkii_standard_ep",
      "colorId": "-1"
    },
    {
      "id": "113",
      "name": "Yucca spp",
      "isItem": "true",
      "parentId": "96",
      "drawable_name": "yucca_spp_ep"
    },
    {
      "id": "114",
      "name": "Desk bowl plants Low Light",
      "isItem": "false",
      "parentId": "74"
    },
    {
      "id": "115",
      "name": "Desk bowl plants Med Light",
      "isItem": "false",
      "parentId": "74"
    },
    {
      "id": "116",
      "name": "Desk bowl plants High Light",
      "isItem": "false",
      "parentId": "74"
    },
    {
      "id": "117",
      "name": "A. ‘Silver Queen’",
      "isItem": "true",
      "parentId": "114",
      "drawable_name": "a_silver_queen_dp",
      "colorId": "-1"
    },
    {
      "id": "118",
      "name": "D. compacta",
      "isItem": "true",
      "parentId": "114",
      "drawable_name": "d_compacta_dp",
      "colorId": "-1"
    },
    {
      "id": "119",
      "name": "Sansevieria spp",
      "isItem": "true",
      "parentId": "114",
      "drawable_name": "sansevieria_spp_dp",
      "colorId": "-1"
    },
    {
      "id": "120",
      "name": "Phalaneopsis pink orchid",
      "isItem": "true",
      "parentId": "115",
      "drawable_name": "phalaneopsis_pink_orchid_dp",
      "colorId": "-1"
    },
    {
      "id": "121",
      "name": "Phalaenopsis white orchid",
      "isItem": "true",
      "parentId": "115",
      "drawable_name": "phalaneopsis_white_orchid_dp",
      "colorId": "-1"
    },
    {
      "id": "122",
      "name": "Vriesia spp",
      "isItem": "true",
      "parentId": "115",
      "drawable_name": "vriesia_spp_dp",
      "colorId": "-1"
    },
    {
      "id": "123",
      "name": "D. ‘Lemon & Lime’",
      "isItem": "true",
      "parentId": "116",
      "drawable_name": "d_lemon_lime_dp",
      "colorId": "-1"
    },
    {
      "id": "124",
      "name": "D. marginata",
      "isItem": "true",
      "parentId": "116",
      "drawable_name": "d_marginata_dp",
      "colorId": "-1"
    },
    {
      "id": "125",
      "name": "D. sanderiana",
      "isItem": "true",
      "parentId": "116",
      "drawable_name": "d_sanderiana_dp",
      "colorId": "-1"
    },
    {
      "id": "126",
      "name": "D. 'Warneckeii'",
      "isItem": "true",
      "parentId": "116",
      "drawable_name": "d_warneckeii_dp",
      "colorId": "-1"
    },
    {
      "id": "127",
      "name": "F. ‘Ginseng’ bonsai",
      "isItem": "true",
      "parentId": "116",
      "drawable_name": "f_ginseng_bonsani_dp",
      "colorId": "-1"
    },
    {
      "id": "128",
      "name": "Vibrantly African 1",
      "isItem": "true",
      "parentId": "58",
      "drawable_name": "lr_namakwa_flower",
      "colorId": "-1"
    },
    {
      "id": "129",
      "name": "Vibrantly African 2",
      "isItem": "true",
      "parentId": "58",
      "drawable_name": "v9",
      "colorId": "-1"
    },
    {
      "id": "130",
      "name": "Vibrantly African 3",
      "isItem": "true",
      "parentId": "58",
      "drawable_name": "v10",
      "colorId": "-1"
    },
    {
      "id": "131",
      "name": "Vibrantly African 4",
      "isItem": "true",
      "parentId": "58",
      "drawable_name": "v13",
      "colorId": "-1"
    },
    {
      "id": "132",
      "name": "Vibrantly African 5",
      "isItem": "true",
      "parentId": "58",
      "drawable_name": "v16",
      "colorId": "-1"
    },
    {
      "id": "133",
      "name": "Vibrantly African 6",
      "isItem": "true",
      "parentId": "58",
      "drawable_name": "vibrantly_african_24",
      "colorId": "-1"
    },
    {
      "id": "134",
      "name": "Gauteng Vibe 1",
      "isItem": "true",
      "parentId": "65",
      "drawable_name": "gau_vibe_1",
      "colorId": "-1"
    },
    {
      "id": "135",
      "name": "Gauteng Vibe 2",
      "isItem": "true",
      "parentId": "65",
      "drawable_name": "gau_vibe_2",
      "colorId": "-1"
    },
    {
      "id": "136",
      "name": "Gauteng Vibe 3",
      "isItem": "true",
      "parentId": "65",
      "drawable_name": "gau_vibe_3",
      "colorId": "-1"
    },
    {
      "id": "137",
      "name": "Gauteng Vibe 4",
      "isItem": "true",
      "parentId": "65",
      "drawable_name": "gau_vibe_4",
      "colorId": "-1"
    },
    {
      "id": "138",
      "name": "Gauteng Vibe 5",
      "isItem": "true",
      "parentId": "65",
      "drawable_name": "gau_vibe_5",
      "colorId": "-1"
    },
    {
      "id": "139",
      "name": "Gauteng Vibe 6",
      "isItem": "true",
      "parentId": "65",
      "drawable_name": "gau_vibe_6",
      "colorId": "-1"
    },
    {
      "id": "140",
      "name": "KZN Vibe 1",
      "isItem": "true",
      "parentId": "67",
      "drawable_name": "kzn_vibes_1",
      "colorId": "-1"
    },
    {
      "id": "141",
      "name": "KZN Vibe 2",
      "isItem": "true",
      "parentId": "67",
      "drawable_name": "kzn_vibes_2",
      "colorId": "-1"
    },
    {
      "id": "142",
      "name": "KZN Vibe 3",
      "isItem": "true",
      "parentId": "67",
      "drawable_name": "kzn_vibes_3",
      "colorId": "-1"
    },
    {
      "id": "143",
      "name": "KZN Vibe 4",
      "isItem": "true",
      "parentId": "67",
      "drawable_name": "kzn_vibes_4",
      "colorId": "-1"
    },
    {
      "id": "144",
      "name": "KZN Vibe 5",
      "isItem": "true",
      "parentId": "67",
      "drawable_name": "kzn_vibes_5",
      "colorId": "-1"
    },
    {
      "id": "145",
      "name": "KZN Vibe 6",
      "isItem": "true",
      "parentId": "67",
      "drawable_name": "kzn_vibes_6",
      "colorId": "-1"
    },
    {
      "id": "146",
      "name": "WC Vibe 1",
      "isItem": "true",
      "parentId": "66",
      "drawable_name": "wc_vibes_1",
      "colorId": "-1"
    },
    {
      "id": "147",
      "name": "WC Vibe 2",
      "isItem": "true",
      "parentId": "66",
      "drawable_name": "wc_vibes_2",
      "colorId": "-1"
    },
    {
      "id": "148",
      "name": "WC Vibe 3",
      "isItem": "true",
      "parentId": "66",
      "drawable_name": "wc_vibes_3",
      "colorId": "-1"
    },
    {
      "id": "149",
      "name": "WC Vibe 4",
      "isItem": "true",
      "parentId": "66",
      "drawable_name": "wc_vibes_4",
      "colorId": "-1"
    },
    {
      "id": "150",
      "name": "WC Vibe 5",
      "isItem": "true",
      "parentId": "66",
      "drawable_name": "wc_vibes_5",
      "colorId": "-1"
    },
    {
      "id": "151",
      "name": "WC Vibe 6",
      "isItem": "true",
      "parentId": "66",
      "drawable_name": "wc_vibes_6",
      "colorId": "-1"
    },
    {
      "id": "152",
      "name": "Silk flower Classic 1",
      "isItem": "true",
      "parentId": "71",
      "drawable_name": "b201",
      "colorId": "-1"
    },
    {
      "id": "153",
      "name": "Silk flower Classic 2",
      "isItem": "true",
      "parentId": "71",
      "drawable_name": "b202",
      "colorId": "-1"
    },
    {
      "id": "154",
      "name": "Silk flower Classic 3",
      "isItem": "true",
      "parentId": "71",
      "drawable_name": "c49",
      "colorId": "-1"
    },
    {
      "id": "155",
      "name": "Silk flower Classic 4",
      "isItem": "true",
      "parentId": "71",
      "drawable_name": "c211",
      "colorId": "-1"
    },
    {
      "id": "156",
      "name": "Silk flower Classic 5",
      "isItem": "true",
      "parentId": "71",
      "drawable_name": "dp2361",
      "colorId": "-1"
    },
    {
      "id": "157",
      "name": "Silk flower Classic 6",
      "isItem": "true",
      "parentId": "71",
      "drawable_name": "p787",
      "colorId": "-1"
    },
    {
      "id": "158",
      "name": "Silk flower Contemporary 1",
      "isItem": "true",
      "parentId": "70",
      "drawable_name": "c220",
      "colorId": "-1"
    },
    {
      "id": "159",
      "name": "Silk flower Contemporary 2",
      "isItem": "true",
      "parentId": "70",
      "drawable_name": "c221",
      "colorId": "-1"
    },
    {
      "id": "160",
      "name": "Silk flower Contemporary 3",
      "isItem": "true",
      "parentId": "70",
      "drawable_name": "e90",
      "colorId": "-1"
    },
    {
      "id": "161",
      "name": "Silk flower Contemporary 4",
      "isItem": "true",
      "parentId": "70",
      "drawable_name": "ike030_lge",
      "colorId": "-1"
    },
    {
      "id": "162",
      "name": "Silk flower Contemporary 5",
      "isItem": "true",
      "parentId": "70",
      "drawable_name": "p788",
      "colorId": "-1"
    },
    {
      "id": "163",
      "name": "Silk flower Contemporary 6",
      "isItem": "true",
      "parentId": "70",
      "drawable_name": "p789",
      "colorId": "-1"
    },
    {
      "id": "164",
      "name": "Silk flower Country 1",
      "isItem": "true",
      "parentId": "69",
      "drawable_name": "b197",
      "colorId": "-1"
    },
    {
      "id": "165",
      "name": "Silk flower Country 2",
      "isItem": "true",
      "parentId": "69",
      "drawable_name": "ike027_lge",
      "colorId": "-1"
    },
    {
      "id": "166",
      "name": "Silk flower Country 3",
      "isItem": "true",
      "parentId": "69",
      "drawable_name": "p786",
      "colorId": "-1"
    },
    {
      "id": "167",
      "name": "Silk flower Country 4",
      "isItem": "true",
      "parentId": "69",
      "drawable_name": "p802",
      "colorId": "-1"
    },
    {
      "id": "168",
      "name": "Silk flower Country 5",
      "isItem": "true",
      "parentId": "69",
      "drawable_name": "p803",
      "colorId": "-1"
    },
    {
      "id": "169",
      "name": "Silk flower Country 6",
      "isItem": "true",
      "parentId": "69",
      "drawable_name": "p804",
      "colorId": "-1"
    },
    {
      "id": "170",
      "name": "Silk flower Indigenous 1",
      "isItem": "true",
      "parentId": "68",
      "drawable_name": "agapanthus",
      "colorId": "-1"
    },
    {
      "id": "171",
      "name": "Silk flower Indigenous 2",
      "isItem": "true",
      "parentId": "68",
      "drawable_name": "c215",
      "colorId": "-1"
    },
    {
      "id": "172",
      "name": "Silk flower Indigenous 3",
      "isItem": "true",
      "parentId": "68",
      "drawable_name": "d171",
      "colorId": "-1"
    },
    {
      "id": "173",
      "name": "Silk flower Indigenous 4",
      "isItem": "true",
      "parentId": "68",
      "drawable_name": "e84g",
      "colorId": "-1"
    },
    {
      "id": "174",
      "name": "Silk flower Indigenous 5",
      "isItem": "true",
      "parentId": "68",
      "drawable_name": "p740",
      "colorId": "-1"
    },
    {
      "id": "175",
      "name": "Silk flower Indigenous 6",
      "isItem": "true",
      "parentId": "68",
      "drawable_name": "p785",
      "colorId": "-1"
    },
    {
      "id": "176",
      "name": "Abstract Colour 1",
      "isItem": "true",
      "parentId": "64",
      "drawable_name": "ac1",
      "colorId": "-1"
    },
    {
      "id": "177",
      "name": "Abstract Colour 2",
      "isItem": "true",
      "parentId": "64",
      "drawable_name": "ac2",
      "colorId": "-1"
    },
    {
      "id": "178",
      "name": "Abstract Colour 3",
      "isItem": "true",
      "parentId": "64",
      "drawable_name": "ac3",
      "colorId": "-1"
    },
    {
      "id": "179",
      "name": "Abstract Colour 4",
      "isItem": "true",
      "parentId": "64",
      "drawable_name": "ac6",
      "colorId": "-1"
    },
    {
      "id": "180",
      "name": "Abstract Colour 5",
      "isItem": "true",
      "parentId": "64",
      "drawable_name": "ac7",
      "colorId": "-1"
    },
    {
      "id": "181",
      "name": "Abstract Colour 6",
      "isItem": "true",
      "parentId": "64",
      "drawable_name": "ac8",
      "colorId": "-1"
    },
    {
      "id": "188",
      "name": "Natural Serene 1",
      "isItem": "true",
      "parentId": "59",
      "drawable_name": "lrnamakwa_flower_0564",
      "colorId": "-1"
    },
    {
      "id": "189",
      "name": "Natural Serene 2",
      "isItem": "true",
      "parentId": "59",
      "drawable_name": "q1_naturally_serene",
      "colorId": "-1"
    },
    {
      "id": "190",
      "name": "Natural Serene 3",
      "isItem": "true",
      "parentId": "59",
      "drawable_name": "q9_naturally_serene",
      "colorId": "-1"
    },
    {
      "id": "191",
      "name": "Natural Serene 4",
      "isItem": "true",
      "parentId": "59",
      "drawable_name": "q15_naturally_serene",
      "colorId": "-1"
    },
    {
      "id": "192",
      "name": "Natural Serene 5",
      "isItem": "true",
      "parentId": "59",
      "drawable_name": "q20_naturally_serene",
      "colorId": "-1"
    },
    {
      "id": "193",
      "name": "Natural Serene 6",
      "isItem": "true",
      "parentId": "59",
      "drawable_name": "q24_naturally_serene",
      "colorId": "-1"
    },
    {
      "id": "194",
      "name": "Sea and sand 1",
      "isItem": "true",
      "parentId": "61",
      "drawable_name": "sea_sand",
      "colorId": "-1"
    },{
      "id": "195",
      "name": "Sea and sand 2",
      "isItem": "true",
      "parentId": "61",
      "drawable_name": "tn_susieleblond_4769",
      "colorId": "-1"
    },{
      "id": "196",
      "name": "Sea and sand 3",
      "isItem": "true",
      "parentId": "61",
      "drawable_name": "tn_susieleblond_5286",
      "colorId": "-1"
    },{
      "id": "197",
      "name": "Sea and sand 4",
      "isItem": "true",
      "parentId": "61",
      "drawable_name": "tn_susieleblond_6291",
      "colorId": "-1"
    },{
      "id": "198",
      "name": "Sea and sand 5",
      "isItem": "true",
      "parentId": "61",
      "drawable_name": "tn_susieleblond_9129",
      "colorId": "-1"
    },{
      "id": "199",
      "name": "Sea and sand 6",
      "isItem": "true",
      "parentId": "61",
      "drawable_name": "tn_susieleblond_9205",
      "colorId": "-1"
    },{
      "id": "200",
      "name": "Simply Seeds 1",
      "isItem": "true",
      "parentId": "60",
      "drawable_name": "tn_s2",
      "colorId": "-1"
    },{
      "id": "201",
      "name": "Simply Seeds 2",
      "isItem": "true",
      "parentId": "60",
      "drawable_name": "tn_s13",
      "colorId": "-1"
    },{
      "id": "202",
      "name": "Simply Seeds 3",
      "isItem": "true",
      "parentId": "60",
      "drawable_name": "tn_s14",
      "colorId": "-1"
    },{
      "id": "203",
      "name": "Simply Seeds 4",
      "isItem": "true",
      "parentId": "60",
      "drawable_name": "tn_s15",
      "colorId": "-1"
    },{
      "id": "204",
      "name": "Simply Seeds 5",
      "isItem": "true",
      "parentId": "60",
      "drawable_name": "tn_s18",
      "colorId": "-1"
    },{
      "id": "205",
      "name": "Simply Seeds 6",
      "isItem": "true",
      "parentId": "60",
      "drawable_name": "tn_s20",
      "colorId": "-1"
    },{
      "id": "206",
      "name": "Soul journeys 1",
      "isItem": "true",
      "parentId": "63",
      "drawable_name": "pic4flat",
      "colorId": "-1"
    },{
      "id": "207",
      "name": "Soul journeys 2",
      "isItem": "true",
      "parentId": "63",
      "drawable_name": "pic5flat",
      "colorId": "-1"
    },{
      "id": "208",
      "name": "Soul journeys 3",
      "isItem": "true",
      "parentId": "63",
      "drawable_name": "susieleblond_1185",
      "colorId": "-1"
    },{
      "id": "209",
      "name": "Soul journeys 4",
      "isItem": "true",
      "parentId": "63",
      "drawable_name": "susieleblond_2243",
      "colorId": "-1"
    },{
      "id": "210",
      "name": "Soul journeys 5",
      "isItem": "true",
      "parentId": "63",
      "drawable_name": "susieleblond_2255",
      "colorId": "-1"
    },{
      "id": "211",
      "name": "Soul journeys 6",
      "isItem": "true",
      "parentId": "63",
      "drawable_name": "susieleblond_3116",
      "colorId": "-1"
    },
    {
      "id": "219",
      "name": "Outdoor Plants",
      "isItem": "false",
      "parentId": "-1"
    },
    {
      "id": "220",
      "name": "African & Indigenous outdoor plants (sun)",
      "isItem": "false",
      "parentId": "219"
    },
    {
      "id": "221",
      "name": "Syzygium spp super bowl",
      "isItem": "true",
      "parentId": "220",
      "drawable_name": "Syzygiumsppsuperbowl",
      "colorId": "-1"
    },
    {
      "id": "222",
      "name": "Syzygium spp standard",
      "isItem": "true",
      "parentId": "220",
      "drawable_name": "Syzygiumsppstandard",
      "colorId": "-1"
    },
    {
      "id": "223",
      "name": "Aloe spp",
      "isItem": "true",
      "parentId": "220",
      "drawable_name": "aloe_spp_aip",
      "colorId": "-1"
    },
    {
      "id": "224",
      "name": "Exotic Outdoor Plants (sun)",
      "isItem": "false",
      "parentId": "219"
    },
    {
      "id": "225",
      "name": "Yucca spp",
      "isItem": "true",
      "parentId": "224",
      "drawable_name": "Yuccaspp",
      "colorId": "-1"
    },
    {
      "id": "226",
      "name": "Agave spp",
      "isItem": "true",
      "parentId": "224",
      "drawable_name": "Agave_spp",
      "colorId": "-1"
    },
    {
      "id": "227",
      "name": "Exotic Outdoor Plants (semi-shade)",
      "isItem": "false",
      "parentId": "219"
    },
    {
      "id": "228",
      "name": "Viburnum spp",
      "isItem": "true",
      "parentId": "227",
      "drawable_name": "Viburnumspp",
      "colorId": "-1"
    }

  ]
}